<?xml version="1.0" encoding="utf-8"?>
<!-- Generator: Adobe Illustrator 16.0.0, SVG Export Plug-In . SVG Version: 6.00 Build 0)  -->
<!DOCTYPE svg PUBLIC "-//W3C//DTD SVG 1.1//EN" "http://www.w3.org/Graphics/SVG/1.1/DTD/svg11.dtd">
<svg version="1.1" id="Layer_1" xmlns="http://www.w3.org/2000/svg" xmlns:xlink="http://www.w3.org/1999/xlink" x="0px" y="0px"
	 width="290px" height="290px" viewBox="0 0 290 290" enable-background="new 0 0 290 290" xml:space="preserve">
<path fill="#5BBFCB" d="M-269.767-157.77c0,23.836-19.322,43.156-43.156,43.156c-23.835,0-43.156-19.32-43.156-43.156
	c0-23.834,19.321-43.156,43.156-43.156C-289.089-200.926-269.767-181.604-269.767-157.77"/>
<path fill="#FFFFFF" d="M-331.702-156.055h-4.625v-3.404h4.545c1.672-9.812,7.367-15.488,17.147-17.159v-4.558h3.401v4.553
	c9.779,1.684,15.474,7.334,17.152,17.133h4.562v3.411h-4.559c-1.649,9.794-7.354,15.459-17.145,17.161v4.556h-3.414
	c0-1.344,0-2.659,0-3.973c0-0.718-0.004-0.696-0.723-0.795c-4.842-0.673-8.852-2.864-12.004-6.608
	c-2.387-2.836-3.777-6.103-4.237-9.775C-331.622-155.684-331.663-155.852-331.702-156.055 M-297.667-159.481
	c-0.77-7.543-7.109-13.008-13.558-13.529v6.052h-3.433v-6.056c-7.313,0.662-13.076,7.037-13.491,13.537h6.044v3.432h-6.082
	c0.748,7.431,7.004,12.965,13.553,13.513v-6.055h3.434v6.054c7.229-0.636,13.065-6.954,13.494-13.536h-6.045v-3.411
	L-297.667-159.481L-297.667-159.481z"/>
<path fill="#FFFFFF" d="M-312.812-154.192c-1.885,0.113-3.587-1.436-3.727-3.36c-0.123-1.682,1.236-3.735,3.496-3.812
	c1.885-0.062,3.592,1.448,3.729,3.37C-309.194-156.312-310.553-154.223-312.812-154.192"/>
<path fill="#DDB616" d="M-163.888-53.6c0,23.835-19.322,43.156-43.156,43.156c-23.835,0-43.156-19.321-43.156-43.156
	s19.321-43.156,43.156-43.156C-183.21-96.756-163.888-77.435-163.888-53.6"/>
<path fill="#FFFFFF" d="M-205.265-77.393c0.813-0.471,1.553-0.9,2.39-1.385c6.558,11.59,13.103,23.158,19.669,34.764
	c-0.807,0.469-1.562,0.909-2.389,1.391c-0.486-0.865-0.971-1.701-1.43-2.553c-0.179-0.335-0.353-0.441-0.763-0.337
	c-11.142,2.812-22.287,5.603-33.427,8.419c-0.252,0.063-0.512,0.337-0.645,0.58c-0.521,0.949-0.88,2.008-1.508,2.874
	c-1.232,1.701-3.016,1.512-4.061-0.319c-2.12-3.722-4.248-7.438-6.373-11.158c-1.088-1.906-0.297-3.528,1.878-3.682
	c1.05-0.072,2.12,0.051,3.174,0.159c0.383,0.039,0.626-0.004,0.901-0.279c8.115-8.086,16.234-16.165,24.365-24.233
	c0.323-0.321,0.354-0.553,0.118-0.939C-204.011-75.159-204.612-76.254-205.265-77.393 M-231.138-46.252
	c2.029,3.606,3.94,7.002,5.957,10.586c0.41-1.111,0.781-2.027,1.082-2.964c0.172-0.538,0.447-0.817,1.018-0.958
	c9.154-2.269,18.305-4.56,27.456-6.849c2.255-0.563,4.508-1.136,6.86-1.728c-4.338-7.646-8.633-15.219-13.01-22.936
	c-0.268,0.33-0.398,0.525-0.562,0.689c-8.118,8.08-16.243,16.153-24.346,24.25c-0.512,0.51-0.935,0.639-1.633,0.424
	C-229.155-45.997-230.056-46.065-231.138-46.252"/>
<path fill="#FFFFFF" d="M-186.747-56.674c-0.039-0.799-0.082-1.668-0.131-2.674h5.59c0.039,0.771,0.084,1.656,0.137,2.674H-186.747z
	"/>
<path fill="#FFFFFF" d="M-187.644-62.129c-0.457-0.83-0.877-1.593-1.338-2.431c1.626-0.896,3.211-1.769,4.842-2.667
	c0.457,0.83,0.878,1.594,1.337,2.43C-184.405-63.915-185.977-63.047-187.644-62.129"/>
<path fill="#FFFFFF" d="M-191.149-66.79c-0.772-0.586-1.467-1.11-2.211-1.674c1.098-1.448,2.154-2.845,3.265-4.31
	c0.737,0.562,1.444,1.099,2.209,1.681C-188.98-69.65-190.038-68.256-191.149-66.79"/>
<path fill="#E95478" d="M-163.888-157.77c0,23.836-19.322,43.156-43.156,43.156c-23.835,0-43.156-19.32-43.156-43.156
	c0-23.834,19.321-43.156,43.156-43.156C-183.21-200.926-163.888-181.604-163.888-157.77"/>
<path fill="#FFFFFF" d="M-214.44-132.453c-0.11,0-0.224-0.013-0.334-0.04l-0.194-0.047c-0.753-0.182-1.222-0.934-1.054-1.691
	l4.854-21.857h-6.23c-0.424,0-0.826-0.189-1.096-0.516s-0.381-0.756-0.302-1.172l4.331-22.806c0.127-0.671,0.714-1.157,1.398-1.157
	h16.022c0.464,0,0.899,0.228,1.165,0.606c0.266,0.379,0.33,0.866,0.172,1.302l-4.971,13.7h6.688c0.524,0,1.006,0.288,1.254,0.75
	c0.248,0.461,0.221,1.022-0.068,1.459l-20.449,30.833C-213.522-132.686-213.971-132.453-214.44-132.453 M-215.681-158.934h6.285
	c0.432,0,0.84,0.196,1.109,0.533c0.27,0.336,0.373,0.777,0.279,1.198l-3.689,16.617l15.055-22.7h-6.067
	c-0.464,0-0.897-0.227-1.165-0.605c-0.266-0.381-0.33-0.866-0.172-1.303l4.971-13.699h-12.816L-215.681-158.934z"/>
<path fill="#6358A1" d="M-269.767-53.6c0,23.835-19.322,43.156-43.156,43.156c-23.835,0-43.156-19.321-43.156-43.156
	s19.321-43.156,43.156-43.156C-289.089-96.756-269.767-77.435-269.767-53.6"/>
<path fill="#FFFFFF" d="M-289.511-69.762c-2.567-3.793-6.24-5.952-10.826-6.387c-0.471-0.045-0.938-0.068-1.396-0.068
	c-3.066,0-5.848,1.007-8.21,3.162c-1.187,1.084-2.237,2.316-3.272,3.398c-1.105-1.145-2.192-2.43-3.442-3.531
	c-2.415-2.129-5.172-3.033-8.138-3.033c-0.963,0-1.947,0.095-2.949,0.274c-2.014,0.361-3.811,1.306-5.504,2.444
	c-4.672,3.145-6.893,8.736-5.697,14.238c0.523,2.41,1.734,4.471,3.109,6.457c2.115,3.054,4.597,5.815,7.197,8.443
	c5.019,5.072,10.151,10.03,15.237,15.034c0.052,0.051,0.119,0.086,0.2,0.144c0.49-0.463,0.969-0.908,1.441-1.359
	c5.908-5.653,11.858-11.266,17.263-17.42c2.204-2.514,4.385-5.055,5.841-8.083C-286.399-60.747-286.562-65.41-289.511-69.762
	 M-291.161-57.251c-1.253,2.606-3.118,4.823-5.426,7.453c-4.94,5.629-10.48,10.924-15.838,16.045l-0.77,0.735
	c-0.889-0.871-1.777-1.742-2.666-2.611c-1.466-1.434-2.952-2.891-4.441-4.356c4.379-0.231,9.237-0.934,11.903-2.925
	c5.113-3.818,4.197-12.309,4.197-12.309l4.387-2.114l-4.229-2.115c-0.252-2.903-3.029-4.292-3.029-4.292
	c-4.639-1.957-7.164,2.493-7.164,2.493l-11.223,16.14c-0.401-0.402-0.807-0.806-1.205-1.209c-2.95-2.981-5.139-5.547-6.887-8.072
	c-1.129-1.631-2.235-3.42-2.681-5.467c-0.955-4.394,0.824-8.846,4.534-11.342c1.684-1.133,3.096-1.772,4.443-2.015
	c0.855-0.154,1.684-0.231,2.459-0.231c2.455,0,4.516,0.766,6.301,2.34c0.757,0.666,1.465,1.432,2.214,2.24
	c0.358,0.387,0.713,0.77,1.069,1.137l2.008,2.08l1.996-2.091c0.33-0.345,0.662-0.704,0.998-1.069c0.691-0.75,1.406-1.526,2.14-2.195
	c1.795-1.639,3.868-2.436,6.337-2.436c0.368,0,0.75,0.018,1.135,0.055c3.744,0.354,6.701,2.097,8.789,5.179
	C-289.482-64.768-289.271-61.186-291.161-57.251 M-309.802-59.512c0-0.6,0.487-1.086,1.088-1.086c0.6,0,1.086,0.486,1.086,1.086
	c0,0.601-0.486,1.088-1.086,1.088S-309.802-58.912-309.802-59.512"/>
<path opacity="0.2" fill="#1D1D1B" enable-background="new    " d="M288.389,157.162c0,72.479-58.75,131.229-131.225,131.229
	c-72.476,0-131.227-58.748-131.227-131.229c0-72.473,58.751-131.227,131.227-131.227C229.639,25.936,288.389,84.689,288.389,157.162
	"/>
<path fill="#FFFFFF" d="M264.062,132.837c0,72.479-58.75,131.228-131.225,131.228c-72.476,0-131.228-58.748-131.228-131.228
	C1.61,60.363,60.361,1.609,132.838,1.609C205.312,1.609,264.062,60.363,264.062,132.837"/>
<g>
	<g>
		<path fill="#54C4CF" d="M133.223,189.289c-5.004,0-10.009,0.023-15.014-0.02c-1.188-0.01-2.409-0.11-3.554-0.408
			c-2.664-0.695-4.334-2.793-4.401-5.51c-0.187-7.521-2.941-14.062-7.195-20.162c-3.979-5.707-8.42-11.264-11.34-17.502
			c-6.778-14.481-6.134-28.938,3.158-42.296c6.816-9.801,16.519-15.604,28.2-17.866c15.333-2.968,29.295,0.102,41.297,10.372
			c14.183,12.136,18.469,32.97,9.983,49.626c-2.793,5.481-6.428,10.582-10.057,15.584c-4.773,6.582-8.314,13.475-8.551,21.836
			c-0.119,4.168-2.699,6.354-6.879,6.398c-5.216,0.057-10.433,0.014-15.65,0.014C133.223,189.335,133.223,189.311,133.223,189.289z
			 M145.583,178.848c1.101-10.402,6.34-18.572,12.312-26.443c2.375-3.131,4.606-6.418,6.498-9.857
			c6.842-12.441,4.664-27.67-5.593-37.455c-10.295-9.822-22.683-12.397-36.215-8.744c-16.81,4.54-29.386,20.191-23.086,41.01
			c1.982,6.55,6.023,11.892,10.112,17.186c5.322,6.892,9.514,14.271,10.824,23.042c0.071,0.473,0.812,1.205,1.246,1.21
			C129.566,178.867,137.451,178.848,145.583,178.848z"/>
		<path fill="#54C4CF" d="M133.088,203.249c-5.56,0-11.119,0.019-16.68-0.021c-0.896-0.004-1.842-0.115-2.672-0.424
			c-2.026-0.75-3.131-2.646-2.877-4.646c0.229-1.816,1.792-3.404,3.787-3.74c0.896-0.151,1.82-0.188,2.73-0.188
			c10.347-0.014,20.692-0.008,31.039-0.006c0.562,0,1.127,0.002,1.688,0.051c3.135,0.278,5.076,2.105,4.953,4.644
			c-0.123,2.533-2.254,4.31-5.287,4.322C144.209,203.266,138.649,203.248,133.088,203.249z"/>
		<g>
			<path fill="#54C4CF" d="M198.141,128.782c-5.561,0-2.658,0.019-8.217-0.019c-0.896-0.005-1.842-0.117-2.672-0.425
				c-2.025-0.75-3.131-2.646-2.877-4.645c0.23-1.816,1.791-3.404,3.787-3.74c0.895-0.152,1.82-0.187,2.732-0.189
				c10.344-0.013,12.227-0.008,22.573-0.006c0.562,0,1.128,0.002,1.688,0.052c3.135,0.279,5.076,2.106,4.953,4.642
				c-0.123,2.535-2.254,4.311-5.287,4.323C209.262,128.798,203.701,128.781,198.141,128.782z"/>
			<path fill="#54C4CF" d="M59.363,128.782c-5.561,0-2.659,0.019-8.219-0.019c-0.894-0.005-1.841-0.117-2.672-0.425
				c-2.025-0.75-3.131-2.646-2.876-4.645c0.23-1.816,1.791-3.404,3.786-3.74c0.897-0.152,1.82-0.187,2.732-0.189
				c10.345-0.013,12.229-0.008,22.574-0.006c0.563,0,1.129,0.002,1.688,0.052c3.135,0.279,5.076,2.106,4.952,4.642
				c-0.123,2.535-2.253,4.311-5.286,4.323C70.482,128.798,64.922,128.781,59.363,128.782z"/>
		</g>
		<path fill="#54C4CF" d="M128.432,59.259c0-5.561-0.018-2.659,0.018-8.218c0.008-0.896,0.119-1.842,0.425-2.672
			c0.751-2.026,2.647-3.131,4.646-2.876c1.815,0.231,3.402,1.792,3.741,3.788c0.15,0.895,0.186,1.819,0.188,2.729
			c0.013,10.345,0.009,12.23,0.006,22.575c0,0.562-0.002,1.127-0.05,1.687c-0.28,3.136-2.105,5.078-4.643,4.953
			c-2.534-0.123-4.311-2.253-4.324-5.287C128.417,70.379,128.432,64.819,128.432,59.259z"/>
		<path fill="#54C4CF" d="M179.607,71.672c3.932-3.931,1.865-1.892,5.822-5.798c0.639-0.628,1.387-1.219,2.19-1.589
			c1.963-0.902,4.084-0.342,5.317,1.251c1.121,1.447,1.142,3.672-0.033,5.322c-0.524,0.74-1.153,1.418-1.797,2.064
			c-7.309,7.325-8.643,8.654-15.961,15.968c-0.396,0.397-0.799,0.796-1.229,1.156c-2.414,2.021-5.078,2.101-6.785,0.221
			c-1.703-1.88-1.453-4.642,0.682-6.796C171.732,79.523,175.676,75.604,179.607,71.672z"/>
		<path fill="#54C4CF" d="M80.323,78.031c-3.932-3.932-1.893-1.867-5.798-5.824c-0.629-0.638-1.219-1.385-1.59-2.19
			c-0.9-1.963-0.342-4.084,1.251-5.319c1.446-1.12,3.674-1.139,5.323,0.034c0.74,0.526,1.419,1.154,2.063,1.798
			c7.325,7.307,8.654,8.642,15.969,15.958c0.397,0.398,0.797,0.799,1.156,1.23c2.021,2.414,2.102,5.078,0.22,6.784
			c-1.879,1.705-4.641,1.455-6.795-0.681C88.173,85.906,84.254,81.962,80.323,78.031z"/>
		<path fill="#54C4CF" d="M131.396,217.211c-5.56,0-2.657,0.02-8.217-0.02c-0.896-0.004-1.843-0.116-2.674-0.424
			c-2.024-0.75-3.13-2.646-2.876-4.646c0.23-1.814,1.791-3.4,3.788-3.739c0.896-0.151,1.818-0.188,2.73-0.188
			c10.346-0.012,7.152-0.008,17.499-0.006c0.562,0,1.127,0.002,1.687,0.052c3.135,0.278,5.077,2.104,4.954,4.643
			c-0.123,2.535-2.254,4.312-5.289,4.323C137.439,217.229,136.956,217.211,131.396,217.211z"/>
	</g>
</g>
</svg>
