<?xml version="1.0" encoding="utf-8"?>
<!-- Generator: Adobe Illustrator 16.0.0, SVG Export Plug-In . SVG Version: 6.00 Build 0)  -->
<!DOCTYPE svg PUBLIC "-//W3C//DTD SVG 1.1//EN" "http://www.w3.org/Graphics/SVG/1.1/DTD/svg11.dtd">
<svg version="1.1" id="Layer_1" xmlns="http://www.w3.org/2000/svg" xmlns:xlink="http://www.w3.org/1999/xlink" x="0px" y="0px"
	 width="290px" height="290px" viewBox="0 0 290 290" enable-background="new 0 0 290 290" xml:space="preserve">
<path fill="#808080" d="M276.227,145c0,72.479-58.75,131.229-131.226,131.229S13.773,217.479,13.773,145
	C13.774,72.525,72.525,13.771,145.002,13.771C217.477,13.771,276.227,72.525,276.227,145"/>
<path fill="#696969" d="M276.227,145c0-3.452-0.135-6.872-0.396-10.256l-40.74-40.74l-33.84,20.246l-58,86.75l-63,8.25l-19.34-5.759
	l72.194,72.194c3.919,0.353,7.885,0.543,11.896,0.543C217.477,276.229,276.227,217.479,276.227,145z"/>
<g>
	<path fill="#FFFFFF" d="M217.658,112.216c3.462-2.536,6.637-5.277,9.572-8.293c3.293-3.381,7.223-8.321,7.859-9.919
		c-0.403-0.145-0.708,0.129-1.023,0.26c-2.656,1.102-5.369,2.04-8.136,2.826c-3.12,0.887-6.293,1.521-9.497,2.011
		c-0.298,0.045-0.299,0.04-0.87-0.21c3.52-2.255,6.572-4.973,9.137-8.227c2.76-3.504,5.485-8.718,5.708-10.954
		c-0.489,0.021-0.833,0.34-1.211,0.552c-5.524,3.09-11.352,5.424-17.484,6.982c-1.273,0.324-2.544,0.699-3.831,0.798
		c-11.551-12.028-28.354-13.934-41.113-8.091c-2.5,1.145-4.85,2.539-7.031,4.21c-2.184,1.672-4.15,3.571-5.9,5.694
		c-1.75,2.122-3.24,4.411-4.465,6.875c-1.222,2.462-2.153,5.027-2.78,7.706c-0.627,2.677-0.947,5.387-0.982,8.137
		c-0.033,2.74,0.381,5.436,0.844,8.22c-0.462,0.015-0.816,0.052-1.167,0.033c-5.252-0.283-10.438-1.036-15.571-2.167
		c-15.459-3.41-29.359-10.082-41.745-19.924c-5.344-4.246-10.194-9-14.592-14.22c-0.283-0.337-0.51-0.742-1.01-0.997
		c-0.255,0.423-0.497,0.795-0.708,1.185c-0.238,0.441-0.453,0.896-0.668,1.349c-0.195,0.412-0.384,0.828-0.562,1.247
		c-0.179,0.42-0.348,0.844-0.512,1.27c-0.164,0.425-0.326,0.852-0.474,1.283c-0.162,0.475-0.312,0.955-0.454,1.436
		c-0.131,0.437-0.252,0.877-0.363,1.319c-0.11,0.442-0.211,0.888-0.303,1.334c-0.102,0.492-0.192,0.985-0.279,1.479
		c-0.079,0.45-0.16,0.899-0.216,1.352s-0.08,0.91-0.122,1.364c-0.042,0.455-0.104,0.908-0.131,1.363
		c-0.03,0.501-0.036,1.004-0.042,1.505c-0.006,0.457-0.006,0.914,0.006,1.37c0.011,0.456,0.029,0.913,0.063,1.368
		c0.037,0.5,0.094,1,0.147,1.499c0.048,0.454,0.096,0.907,0.157,1.359s0.13,0.904,0.21,1.353c0.081,0.449,0.171,0.897,0.273,1.342
		c0.113,0.489,0.242,0.974,0.372,1.458c0.119,0.44,0.243,0.879,0.377,1.315c0.135,0.436,0.278,0.869,0.43,1.299
		c0.167,0.473,0.339,0.945,0.523,1.411c0.168,0.424,0.348,0.844,0.533,1.261c0.187,0.416,0.379,0.83,0.581,1.239
		c0.222,0.45,0.452,0.896,0.69,1.337c0.217,0.402,0.444,0.798,0.678,1.19s0.473,0.781,0.721,1.164
		c0.249,0.383,0.505,0.761,0.769,1.134c0.289,0.41,0.584,0.816,0.888,1.216c0.276,0.363,0.564,0.718,0.855,1.069
		c0.292,0.352,0.588,0.699,0.894,1.038c0.335,0.373,0.679,0.74,1.028,1.101c0.317,0.328,0.643,0.648,0.974,0.963
		c0.329,0.315,0.665,0.625,1.008,0.927c0.343,0.301,0.692,0.594,1.047,0.882c0.39,0.317,0.791,0.619,1.184,0.932
		c0.339,0.272,0.74,0.48,1.124,0.966c-1.536,0.179-2.869-0.08-4.19-0.3c-1.302-0.217-2.602-0.496-3.871-0.856
		c-1.313-0.373-2.591-0.873-3.882-1.324c-1.276-0.446-2.418-1.219-3.727-1.638c-0.729,4.242,1.457,12.807,4.735,18.328
		c5.361,9.026,13.25,14.642,23.579,17.153c-0.411,0.162-0.652,0.299-0.91,0.354c-2.144,0.464-4.304,0.814-6.501,0.888
		c-2.606,0.085-5.203,0-7.773-0.491c-0.159-0.03-0.336,0.03-0.582,0.058c0.149,0.462,0.265,0.852,0.402,1.234
		c0.153,0.431,0.321,0.854,0.492,1.277c0.154,0.38,0.315,0.758,0.485,1.132c0.188,0.415,0.385,0.827,0.588,1.235
		c0.183,0.368,0.374,0.731,0.57,1.092c0.219,0.401,0.441,0.799,0.673,1.192c0.208,0.354,0.425,0.703,0.648,1.048
		c0.246,0.384,0.499,0.765,0.758,1.14c0.233,0.339,0.475,0.672,0.722,1c0.274,0.365,0.554,0.726,0.841,1.081
		c0.258,0.319,0.524,0.633,0.794,0.942c0.299,0.345,0.601,0.688,0.911,1.021c0.279,0.302,0.568,0.595,0.859,0.884
		c0.324,0.321,0.652,0.64,0.986,0.951c0.301,0.278,0.609,0.552,0.921,0.819c0.346,0.297,0.696,0.59,1.051,0.877
		c0.319,0.259,0.645,0.511,0.974,0.756c0.328,0.246,0.662,0.487,1.001,0.719c0.376,0.26,0.757,0.51,1.141,0.757
		c0.346,0.224,0.692,0.442,1.047,0.65c0.394,0.23,0.792,0.453,1.193,0.671c0.36,0.195,0.726,0.385,1.094,0.566
		c0.408,0.202,0.82,0.397,1.235,0.587c0.374,0.169,0.751,0.33,1.131,0.485c0.422,0.173,0.845,0.345,1.271,0.503
		c0.385,0.143,0.774,0.271,1.165,0.399c0.434,0.142,0.866,0.282,1.305,0.409c0.394,0.114,0.792,0.215,1.191,0.31
		c0.443,0.107,0.889,0.204,1.335,0.299c0.401,0.085,0.804,0.166,1.207,0.239c0.448,0.082,0.898,0.165,1.351,0.226
		c0.406,0.054,0.817,0.074,1.227,0.115c0.454,0.046,0.908,0.094,1.361,0.148c0.382,0.046,0.789-0.032,1.252,0.178
		c-0.457,0.546-0.959,0.855-1.427,1.195c-14.009,10.16-29.678,14.747-46.94,13.965c-1.095-0.049-2.185-0.171-3.277-0.243
		c-0.195-0.013-0.461-0.128-0.572,0.261c0.405,0.263,0.813,0.54,1.235,0.797c5.743,3.501,11.771,6.417,18.085,8.734
		c9.533,3.498,19.379,5.529,29.514,6.058c5.657,0.295,11.315,0.173,16.961-0.411c4.909-0.508,9.765-1.295,14.558-2.477
		c20.555-5.068,37.675-15.711,51.371-31.824c10.24-12.048,17.296-25.793,21.468-41.03c1.583-5.78,2.63-11.658,3.204-17.62
		c0.363-3.776,0.43-7.564,0.354-11.356C217.646,113.68,217.658,112.998,217.658,112.216z"/>
	<path fill-rule="evenodd" clip-rule="evenodd" fill="#FFFFFF" d="M217.658,112.216c0,0.781-0.012,1.464,0.002,2.146
		c0.075,3.792,0.009,7.58-0.354,11.356c-0.574,5.962-1.621,11.839-3.204,17.62c-4.172,15.237-11.228,28.982-21.468,41.03
		c-13.696,16.113-30.816,26.756-51.371,31.824c-4.793,1.182-9.648,1.969-14.558,2.477c-5.646,0.584-11.304,0.706-16.961,0.411
		c-10.135-0.528-19.98-2.56-29.514-6.058c-6.314-2.317-12.342-5.233-18.085-8.734c-0.422-0.257-0.83-0.534-1.235-0.797
		c0.111-0.389,0.377-0.273,0.572-0.261c1.093,0.072,2.183,0.194,3.277,0.243c17.263,0.782,32.932-3.805,46.94-13.965
		c0.468-0.34,0.97-0.649,1.427-1.195c-0.463-0.21-0.87-0.132-1.252-0.178c-0.453-0.055-0.907-0.103-1.361-0.148
		c-0.409-0.041-0.82-0.062-1.227-0.115c-0.452-0.061-0.902-0.144-1.351-0.226c-0.403-0.073-0.806-0.154-1.207-0.239
		c-0.446-0.095-0.892-0.191-1.335-0.299c-0.399-0.095-0.798-0.195-1.191-0.31c-0.438-0.127-0.871-0.268-1.305-0.409
		c-0.391-0.128-0.78-0.257-1.165-0.399c-0.427-0.158-0.85-0.33-1.271-0.503c-0.38-0.155-0.757-0.316-1.131-0.485
		c-0.415-0.189-0.827-0.385-1.235-0.587c-0.368-0.182-0.733-0.371-1.094-0.566c-0.401-0.218-0.8-0.44-1.193-0.671
		c-0.354-0.208-0.701-0.427-1.047-0.65c-0.384-0.247-0.765-0.497-1.141-0.757c-0.339-0.231-0.673-0.473-1.001-0.719
		c-0.329-0.245-0.654-0.497-0.974-0.756c-0.354-0.287-0.705-0.58-1.051-0.877c-0.312-0.268-0.62-0.541-0.921-0.819
		c-0.334-0.312-0.662-0.63-0.986-0.951c-0.291-0.289-0.58-0.582-0.859-0.884c-0.311-0.334-0.612-0.677-0.911-1.021
		c-0.27-0.31-0.536-0.623-0.794-0.942c-0.287-0.355-0.566-0.716-0.841-1.081c-0.247-0.328-0.488-0.661-0.722-1
		c-0.259-0.375-0.512-0.756-0.758-1.14c-0.224-0.345-0.44-0.694-0.648-1.048c-0.231-0.394-0.454-0.791-0.673-1.192
		c-0.196-0.36-0.388-0.724-0.57-1.092c-0.203-0.408-0.399-0.82-0.588-1.235c-0.17-0.374-0.331-0.752-0.485-1.132
		c-0.171-0.423-0.339-0.847-0.492-1.277c-0.138-0.383-0.253-0.772-0.402-1.234c0.246-0.027,0.423-0.088,0.582-0.058
		c2.57,0.491,5.167,0.576,7.773,0.491c2.197-0.073,4.357-0.424,6.501-0.888c0.258-0.056,0.499-0.192,0.91-0.354
		c-10.329-2.511-18.218-8.127-23.579-17.153c-3.278-5.521-5.465-14.086-4.735-18.328c1.309,0.419,2.45,1.192,3.727,1.638
		c1.291,0.452,2.568,0.952,3.882,1.324c1.27,0.361,2.569,0.64,3.871,0.856c1.321,0.22,2.654,0.479,4.19,0.3
		c-0.384-0.485-0.785-0.694-1.124-0.966c-0.393-0.313-0.794-0.615-1.184-0.932c-0.354-0.288-0.704-0.581-1.047-0.882
		c-0.343-0.302-0.679-0.612-1.008-0.927c-0.331-0.315-0.656-0.636-0.974-0.963c-0.35-0.361-0.693-0.728-1.028-1.101
		c-0.306-0.339-0.602-0.687-0.894-1.038c-0.291-0.352-0.579-0.706-0.855-1.069c-0.304-0.4-0.599-0.806-0.888-1.216
		c-0.264-0.373-0.52-0.751-0.769-1.134c-0.248-0.383-0.487-0.771-0.721-1.164s-0.461-0.788-0.678-1.19
		c-0.238-0.441-0.469-0.888-0.69-1.337c-0.202-0.409-0.395-0.823-0.581-1.239c-0.186-0.417-0.365-0.836-0.533-1.261
		c-0.185-0.466-0.356-0.938-0.523-1.411c-0.151-0.43-0.295-0.864-0.43-1.299c-0.134-0.436-0.258-0.875-0.377-1.315
		c-0.13-0.485-0.259-0.97-0.372-1.458c-0.103-0.445-0.192-0.893-0.273-1.342c-0.08-0.449-0.148-0.9-0.21-1.353
		s-0.109-0.906-0.157-1.359c-0.054-0.5-0.11-0.999-0.147-1.499c-0.034-0.455-0.053-0.912-0.063-1.368
		c-0.012-0.457-0.012-0.914-0.006-1.37c0.006-0.501,0.012-1.004,0.042-1.505c0.027-0.455,0.089-0.909,0.131-1.363
		c0.042-0.454,0.066-0.911,0.122-1.364s0.137-0.902,0.216-1.352c0.087-0.494,0.178-0.987,0.279-1.479
		c0.092-0.446,0.192-0.892,0.303-1.334c0.111-0.442,0.232-0.882,0.363-1.319c0.142-0.481,0.292-0.96,0.454-1.436
		c0.147-0.431,0.31-0.858,0.474-1.283c0.164-0.426,0.333-0.85,0.512-1.27c0.179-0.419,0.367-0.835,0.562-1.247
		c0.215-0.453,0.43-0.908,0.668-1.349c0.211-0.389,0.453-0.762,0.708-1.185c0.5,0.254,0.727,0.66,1.01,0.997
		c4.397,5.22,9.248,9.974,14.592,14.22c12.386,9.842,26.286,16.514,41.745,19.924c5.134,1.131,10.319,1.884,15.571,2.167
		c0.351,0.019,0.705-0.018,1.167-0.033c-0.463-2.784-0.877-5.479-0.844-8.22c0.035-2.75,0.355-5.459,0.982-8.137
		c0.627-2.679,1.559-5.244,2.78-7.706c1.225-2.464,2.715-4.753,4.465-6.875c1.75-2.123,3.717-4.022,5.9-5.694
		c2.182-1.671,4.531-3.065,7.031-4.21c12.759-5.843,29.562-3.938,41.113,8.091c1.287-0.099,2.558-0.474,3.831-0.798
		c6.133-1.559,11.96-3.893,17.484-6.982c0.378-0.212,0.722-0.531,1.211-0.552c-0.223,2.236-2.948,7.449-5.708,10.954
		c-2.564,3.254-5.617,5.972-9.137,8.227c0.571,0.25,0.572,0.255,0.87,0.21c3.204-0.49,6.377-1.124,9.497-2.011
		c2.767-0.786,5.479-1.725,8.136-2.826c0.315-0.131,0.62-0.405,1.023-0.26c-0.637,1.598-4.566,6.538-7.859,9.919
		C224.295,106.939,221.12,109.681,217.658,112.216z"/>
</g>
</svg>
